{
  "total": 4523,
  "offset": 0,
  "next": 10,
  "data": [
    {
      "paperId": "649def34f8be52c8b66281af98ae884c09aef38b",
      "corpusId": 14457330,
      "externalIds": {
        "DOI": "10.1214/17-AOS1609",
        "ArXiv": "1608.00060"
      },
      "title": "Double/debiased machine learning for treatment and structural parameters",
      "abstract": "We revisit the classic problem of estimation of a low-dimensional parameter in the presence of high-dimensional nuisance parameters.",
      "venue": "The Annals of Statistics",
      "year": 2018,
      "publicationDate": "2018-04-01",
      "authors": [
        {"authorId": "26331346", "name": "Victor Chernozhukov"},
        {"authorId": "2149494", "name": "Denis Chetverikov"}
      ],
      "referenceCount": 78,
      "citationCount": 1542,
      "influentialCitationCount": 234,
      "isOpenAccess": true,
      "openAccessPdf": {
        "url": "https://arxiv.org/pdf/1608.00060.pdf",
        "status": "GREEN"
      },
      "s2FieldsOfStudy": [
        {"category": "Economics", "source": "s2-fos-model"},
        {"category": "Computer Science", "source": "s2-fos-model"}
      ],
      "publicationTypes": ["JournalArticle"]
    },
    {
      "paperId": "abc123def456",
      "corpusId": 12345678,
      "externalIds": {
        "DOI": "10.1257/aer.20161503"
      },
      "title": "Instrumental Variables with Heterogeneous Treatment Effects",
      "abstract": "This paper considers identification and estimation of treatment effects with instrumental variables.",
      "venue": "American Economic Review",
      "year": 2022,
      "publicationDate": "2022-06-15",
      "authors": [
        {"authorId": "12345", "name": "Jane Economist"}
      ],
      "referenceCount": 45,
      "citationCount": 287,
      "influentialCitationCount": 42,
      "isOpenAccess": false,
      "openAccessPdf": null,
      "s2FieldsOfStudy": [
        {"category": "Economics", "source": "s2-fos-model"}
      ],
      "publicationTypes": ["JournalArticle"]
    },
    {
      "paperId": "xyz789abc123",
      "corpusId": 87654321,
      "externalIds": {
        "ArXiv": "2305.12345"
      },
      "title": "Causal Forest with Instrumental Variables",
      "abstract": "We propose a new method combining causal forests with instrumental variable identification.",
      "venue": "arXiv",
      "year": 2023,
      "publicationDate": "2023-05-20",
      "authors": [
        {"authorId": "67890", "name": "Alice Researcher"},
        {"authorId": "11111", "name": "Bob Scholar"}
      ],
      "referenceCount": 32,
      "citationCount": 15,
      "influentialCitationCount": 3,
      "isOpenAccess": true,
      "openAccessPdf": {
        "url": "https://arxiv.org/pdf/2305.12345.pdf",
        "status": "GREEN"
      },
      "s2FieldsOfStudy": [
        {"category": "Computer Science", "source": "s2-fos-model"},
        {"category": "Economics", "source": "s2-fos-model"}
      ],
      "publicationTypes": ["Conference"]
    }
  ]
}
